<svg xmlns="http://www.w3.org/2000/svg" width="145.107" height="103.648" viewBox="0 0 145.107 103.648">
  <path id="back_arrow" d="M136.743,47.459H37.24L61.183,23.517a9.825,9.825,0,0,0,3.006-7.152A10.485,10.485,0,0,0,53.824,6a9.774,9.774,0,0,0-7.152,3.006L5.431,50.247A9.935,9.935,0,0,0,2,57.824c0,3.778,1.446,5.6,3.348,7.5l41.325,41.319a9.774,9.774,0,0,0,7.152,3.006A10.481,10.481,0,0,0,64.189,99.283a9.825,9.825,0,0,0-3.006-7.152L37.24,68.189h99.5a10.365,10.365,0,0,0,0-20.73Z" transform="translate(-2 -6)" fill="#f46f65"/>
</svg>
